^C:\USERS\GOSORIO\DOCUMENTS\SRC\VC++\NSHIELDDUKPTVALIDATOR\NSHIELDDUKPTVALIDATOR\RELEASE\.NETFRAMEWORK,VERSION=V4.5.ASSEMBLYATTRIBUTES.OBJ|C:\USERS\GOSORIO\DOCUMENTS\SRC\VC++\NSHIELDDUKPTVALIDATOR\NSHIELDDUKPTVALIDATOR\RELEASE\DLLMAIN.OBJ|C:\USERS\GOSORIO\DOCUMENTS\SRC\VC++\NSHIELDDUKPTVALIDATOR\NSHIELDDUKPTVALIDATOR\RELEASE\NSHIELDDUKPTVALIDATOR.OBJ|C:\USERS\GOSORIO\DOCUMENTS\SRC\VC++\NSHIELDDUKPTVALIDATOR\NSHIELDDUKPTVALIDATOR\RELEASE\STDAFX.OBJ
C:\USERS\GOSORIO\DOCUMENTS\SRC\VC++\NSHIELDDUKPTVALIDATOR\RELEASE\NSHIELDDUKPTVALIDATOR.DLL
C:\USERS\GOSORIO\DOCUMENTS\SRC\VC++\NSHIELDDUKPTVALIDATOR\RELEASE\NSHIELDDUKPTVALIDATOR.PDB
