^C:\USERS\GOSORIO\DROPBOX\IDENPLA S.A.S\INGENIERÍA\CW\COLSUBSIDIO\INTEGRACIONNSHIELD\NSHIELDCRYPTOKI\NSHIELDCRYPTOKI\RELEASE\.NETFRAMEWORK,VERSION=V4.0.ASSEMBLYATTRIBUTES.OBJ|C:\USERS\GOSORIO\DROPBOX\IDENPLA S.A.S\INGENIERÍA\CW\COLSUBSIDIO\INTEGRACIONNSHIELD\NSHIELDCRYPTOKI\NSHIELDCRYPTOKI\RELEASE\DLLMAIN.OBJ|C:\USERS\GOSORIO\DROPBOX\IDENPLA S.A.S\INGENIERÍA\CW\COLSUBSIDIO\INTEGRACIONNSHIELD\NSHIELDCRYPTOKI\NSHIELDCRYPTOKI\RELEASE\NSHIELDCRYPTOKI.OBJ|C:\USERS\GOSORIO\DROPBOX\IDENPLA S.A.S\INGENIERÍA\CW\COLSUBSIDIO\INTEGRACIONNSHIELD\NSHIELDCRYPTOKI\NSHIELDCRYPTOKI\RELEASE\STDAFX.OBJ
C:\USERS\GOSORIO\DROPBOX\IDENPLA S.A.S\INGENIERíA\CW\COLSUBSIDIO\INTEGRACIONNSHIELD\NSHIELDCRYPTOKI\RELEASE\NSHIELDCRYPTOKI.DLL
C:\USERS\GOSORIO\DROPBOX\IDENPLA S.A.S\INGENIERÍA\CW\COLSUBSIDIO\INTEGRACIONNSHIELD\NSHIELDCRYPTOKI\RELEASE\NSHIELDCRYPTOKI.PDB
