^C:\Users\gosorio\Dropbox\Idenpla S.A.S\Ingeniería\CW\COLSUBSIDIO\IntegracionNShield\NShieldCryptoki\NShieldCryptoki\NShieldCryptoki.vcxproj
C:\Users\gosorio\Dropbox\Idenpla S.A.S\Ingeniería\CW\COLSUBSIDIO\IntegracionNShield\NShieldCryptoki\Release\NShieldCryptoki.lib
C:\Users\gosorio\Dropbox\Idenpla S.A.S\Ingeniería\CW\COLSUBSIDIO\IntegracionNShield\NShieldCryptoki\Release\NShieldCryptoki.exp
